AdHardwareDesign/LC2/Assignment1/hw1/Long_division/ldiv.vcd
$date
	Sat Oct 03 15:44:24 2015
$end
$version
	ModelSim Version 10.4a
$end
$timescale
	1ns
$end

$scope module tb $end
$var parameter 32 ! TB_TICKS $end
$var parameter 32 " NUMERATOR_WIDTH $end
$var parameter 32 # DENOMINATOR_WIDTH $end
$var parameter 32 $ QUOTIENT_WIDTH $end
$var reg 1 % valid_in $end
$var reg 16 & t [15:0] $end
$var reg 1 ' go $end
$var reg 1 ( clk $end
$var reg 14 ) rnd_num [13:0] $end
$var reg 11 * rnd_dem [10:0] $end
$var reg 14 + numerator [13:0] $end
$var reg 11 , denominator [10:0] $end
$var wire 1 - quotient_out [13] $end
$var wire 1 . quotient_out [12] $end
$var wire 1 / quotient_out [11] $end
$var wire 1 0 quotient_out [10] $end
$var wire 1 1 quotient_out [9] $end
$var wire 1 2 quotient_out [8] $end
$var wire 1 3 quotient_out [7] $end
$var wire 1 4 quotient_out [6] $end
$var wire 1 5 quotient_out [5] $end
$var wire 1 6 quotient_out [4] $end
$var wire 1 7 quotient_out [3] $end
$var wire 1 8 quotient_out [2] $end
$var wire 1 9 quotient_out [1] $end
$var wire 1 : quotient_out [0] $end
$var wire 1 ; remainder_out [13] $end
$var wire 1 < remainder_out [12] $end
$var wire 1 = remainder_out [11] $end
$var wire 1 > remainder_out [10] $end
$var wire 1 ? remainder_out [9] $end
$var wire 1 @ remainder_out [8] $end
$var wire 1 A remainder_out [7] $end
$var wire 1 B remainder_out [6] $end
$var wire 1 C remainder_out [5] $end
$var wire 1 D remainder_out [4] $end
$var wire 1 E remainder_out [3] $end
$var wire 1 F remainder_out [2] $end
$var wire 1 G remainder_out [1] $end
$var wire 1 H remainder_out [0] $end
$var wire 1 I valid_out $end
$var wire 1 J numerator_out [14] $end
$var wire 1 K numerator_out [13] $end
$var wire 1 L numerator_out [12] $end
$var wire 1 M numerator_out [11] $end
$var wire 1 N numerator_out [10] $end
$var wire 1 O numerator_out [9] $end
$var wire 1 P numerator_out [8] $end
$var wire 1 Q numerator_out [7] $end
$var wire 1 R numerator_out [6] $end
$var wire 1 S numerator_out [5] $end
$var wire 1 T numerator_out [4] $end
$var wire 1 U numerator_out [3] $end
$var wire 1 V numerator_out [2] $end
$var wire 1 W numerator_out [1] $end
$var wire 1 X numerator_out [0] $end
$var wire 1 Y denominator_out [10] $end
$var wire 1 Z denominator_out [9] $end
$var wire 1 [ denominator_out [8] $end
$var wire 1 \ denominator_out [7] $end
$var wire 1 ] denominator_out [6] $end
$var wire 1 ^ denominator_out [5] $end
$var wire 1 _ denominator_out [4] $end
$var wire 1 ` denominator_out [3] $end
$var wire 1 a denominator_out [2] $end
$var wire 1 b denominator_out [1] $end
$var wire 1 c denominator_out [0] $end
$var wire 1 d pass $end
$var wire 1 e reset $end
$var integer 32 f idx $end

$scope module ldiv $end
$var parameter 32 g NUMERATOR_WIDTH $end
$var parameter 32 h DENOMINATOR_WIDTH $end
$var parameter 32 i QUOTIENT_WIDTH $end
$var parameter 32 j LATENCY $end
$var wire 1 k clk $end
$var wire 1 e reset $end
$var wire 1 l numerator_in [13] $end
$var wire 1 m numerator_in [12] $end
$var wire 1 n numerator_in [11] $end
$var wire 1 o numerator_in [10] $end
$var wire 1 p numerator_in [9] $end
$var wire 1 q numerator_in [8] $end
$var wire 1 r numerator_in [7] $end
$var wire 1 s numerator_in [6] $end
$var wire 1 t numerator_in [5] $end
$var wire 1 u numerator_in [4] $end
$var wire 1 v numerator_in [3] $end
$var wire 1 w numerator_in [2] $end
$var wire 1 x numerator_in [1] $end
$var wire 1 y numerator_in [0] $end
$var wire 1 z denominator_in [10] $end
$var wire 1 { denominator_in [9] $end
$var wire 1 | denominator_in [8] $end
$var wire 1 } denominator_in [7] $end
$var wire 1 ~ denominator_in [6] $end
$var wire 1 !! denominator_in [5] $end
$var wire 1 "! denominator_in [4] $end
$var wire 1 #! denominator_in [3] $end
$var wire 1 $! denominator_in [2] $end
$var wire 1 %! denominator_in [1] $end
$var wire 1 &! denominator_in [0] $end
$var wire 1 '! valid_in $end
$var wire 1 - quotient_out [13] $end
$var wire 1 . quotient_out [12] $end
$var wire 1 / quotient_out [11] $end
$var wire 1 0 quotient_out [10] $end
$var wire 1 1 quotient_out [9] $end
$var wire 1 2 quotient_out [8] $end
$var wire 1 3 quotient_out [7] $end
$var wire 1 4 quotient_out [6] $end
$var wire 1 5 quotient_out [5] $end
$var wire 1 6 quotient_out [4] $end
$var wire 1 7 quotient_out [3] $end
$var wire 1 8 quotient_out [2] $end
$var wire 1 9 quotient_out [1] $end
$var wire 1 : quotient_out [0] $end
$var wire 1 ; remainder_out [13] $end
$var wire 1 < remainder_out [12] $end
$var wire 1 = remainder_out [11] $end
$var wire 1 > remainder_out [10] $end
$var wire 1 ? remainder_out [9] $end
$var wire 1 @ remainder_out [8] $end
$var wire 1 A remainder_out [7] $end
$var wire 1 B remainder_out [6] $end
$var wire 1 C remainder_out [5] $end
$var wire 1 D remainder_out [4] $end
$var wire 1 E remainder_out [3] $end
$var wire 1 F remainder_out [2] $end
$var wire 1 G remainder_out [1] $end
$var wire 1 H remainder_out [0] $end
$var wire 1 I valid_out $end
$var wire 1 J numerator_out [14] $end
$var wire 1 K numerator_out [13] $end
$var wire 1 L numerator_out [12] $end
$var wire 1 M numerator_out [11] $end
$var wire 1 N numerator_out [10] $end
$var wire 1 O numerator_out [9] $end
$var wire 1 P numerator_out [8] $end
$var wire 1 Q numerator_out [7] $end
$var wire 1 R numerator_out [6] $end
$var wire 1 S numerator_out [5] $end
$var wire 1 T numerator_out [4] $end
$var wire 1 U numerator_out [3] $end
$var wire 1 V numerator_out [2] $end
$var wire 1 W numerator_out [1] $end
$var wire 1 X numerator_out [0] $end
$var wire 1 Y denominator_out [10] $end
$var wire 1 Z denominator_out [9] $end
$var wire 1 [ denominator_out [8] $end
$var wire 1 \ denominator_out [7] $end
$var wire 1 ] denominator_out [6] $end
$var wire 1 ^ denominator_out [5] $end
$var wire 1 _ denominator_out [4] $end
$var wire 1 ` denominator_out [3] $end
$var wire 1 a denominator_out [2] $end
$var wire 1 b denominator_out [1] $end
$var wire 1 c denominator_out [0] $end
$var reg 14 (! numerator_negative [13:0] $end
$var wire 1 )! remainder_next [0] $end
$var wire 1 *! remainder_next [1] $end
$var wire 1 +! remainder_next [2] $end
$var wire 1 ,! remainder_next [3] $end
$var wire 1 -! remainder_next [4] $end
$var wire 1 .! remainder_next [5] $end
$var wire 1 /! remainder_next [6] $end
$var wire 1 0! remainder_next [7] $end
$var wire 1 1! remainder_next [8] $end
$var wire 1 2! remainder_next [9] $end
$var wire 1 3! remainder_next [10] $end
$var wire 1 4! remainder_next [11] $end
$var wire 1 5! remainder_next [12] $end
$var wire 1 6! remainder_next [13] $end
$var wire 1 7! remainder_next [14] $end
$var wire 1 8! remainder_next [15] $end
$var wire 1 9! remainder_next [16] $end
$var wire 1 :! remainder_next [17] $end
$var wire 1 ;! remainder_next [18] $end
$var wire 1 <! remainder_next [19] $end
$var wire 1 =! remainder_next [20] $end
$var wire 1 >! remainder_next [21] $end
$var wire 1 ?! remainder_next [22] $end
$var wire 1 @! remainder_next [23] $end
$var wire 1 A! remainder_next [24] $end
$var wire 1 B! remainder_next [25] $end
$var wire 1 C! remainder_next [26] $end
$var wire 1 D! remainder_next [27] $end
$var wire 1 E! remainder_next [28] $end
$var wire 1 F! remainder_next [29] $end
$var wire 1 G! remainder_next [30] $end
$var wire 1 H! remainder_next [31] $end
$var wire 1 I! remainder_next [32] $end
$var wire 1 J! remainder_next [33] $end
$var wire 1 K! remainder_next [34] $end
$var wire 1 L! remainder_next [35] $end
$var wire 1 M! remainder_next [36] $end
$var wire 1 N! remainder_next [37] $end
$var wire 1 O! remainder_next [38] $end
$var wire 1 P! remainder_next [39] $end
$var wire 1 Q! remainder_next [40] $end
$var wire 1 R! remainder_next [41] $end
$var wire 1 S! remainder_next [42] $end
$var wire 1 T! remainder_next [43] $end
$var wire 1 U! remainder_next [44] $end
$var wire 1 V! remainder_next [45] $end
$var wire 1 W! remainder_next [46] $end
$var wire 1 X! remainder_next [47] $end
$var wire 1 Y! remainder_next [48] $end
$var wire 1 Z! remainder_next [49] $end
$var wire 1 [! remainder_next [50] $end
$var wire 1 \! remainder_next [51] $end
$var wire 1 ]! remainder_next [52] $end
$var wire 1 ^! remainder_next [53] $end
$var wire 1 _! remainder_next [54] $end
$var wire 1 `! remainder_next [55] $end
$var wire 1 a! remainder_next [56] $end
$var wire 1 b! remainder_next [57] $end
$var wire 1 c! remainder_next [58] $end
$var wire 1 d! remainder_next [59] $end
$var wire 1 e! remainder_next [60] $end
$var wire 1 f! remainder_next [61] $end
$var wire 1 g! remainder_next [62] $end
$var wire 1 h! remainder_next [63] $end
$var wire 1 i! remainder_next [64] $end
$var wire 1 j! remainder_next [65] $end
$var wire 1 k! remainder_next [66] $end
$var wire 1 l! remainder_next [67] $end
$var wire 1 m! remainder_next [68] $end
$var wire 1 n! remainder_next [69] $end
$var wire 1 o! remainder_next [70] $end
$var wire 1 p! remainder_next [71] $end
$var wire 1 q! remainder_next [72] $end
$var wire 1 r! remainder_next [73] $end
$var wire 1 s! remainder_next [74] $end
$var wire 1 t! remainder_next [75] $end
$var wire 1 u! remainder_next [76] $end
$var wire 1 v! remainder_next [77] $end
$var wire 1 w! remainder_next [78] $end
$var wire 1 x! remainder_next [79] $end
$var wire 1 y! remainder_next [80] $end
$var wire 1 z! remainder_next [81] $end
$var wire 1 {! remainder_next [82] $end
$var wire 1 |! remainder_next [83] $end
$var wire 1 }! remainder_next [84] $end
$var wire 1 ~! remainder_next [85] $end
$var wire 1 !" remainder_next [86] $end
$var wire 1 "" remainder_next [87] $end
$var wire 1 #" remainder_next [88] $end
$var wire 1 $" remainder_next [89] $end
$var wire 1 %" remainder_next [90] $end
$var wire 1 &" remainder_next [91] $end
$var wire 1 '" remainder_next [92] $end
$var wire 1 (" remainder_next [93] $end
$var wire 1 )" remainder_next [94] $end
$var wire 1 *" remainder_next [95] $end
$var wire 1 +" remainder_next [96] $end
$var wire 1 ," remainder_next [97] $end
$var wire 1 -" remainder_next [98] $end
$var wire 1 ." remainder_next [99] $end
$var wire 1 /" remainder_next [100] $end
$var wire 1 0" remainder_next [101] $end
$var wire 1 1" remainder_next [102] $end
$var wire 1 2" remainder_next [103] $end
$var wire 1 3" remainder_next [104] $end
$var wire 1 4" remainder_next [105] $end
$var wire 1 5" remainder_next [106] $end
$var wire 1 6" remainder_next [107] $end
$var wire 1 7" remainder_next [108] $end
$var wire 1 8" remainder_next [109] $end
$var wire 1 9" remainder_next [110] $end
$var wire 1 :" remainder_next [111] $end
$var wire 1 ;" remainder_next [112] $end
$var wire 1 <" remainder_next [113] $end
$var wire 1 =" remainder_next [114] $end
$var wire 1 >" remainder_next [115] $end
$var wire 1 ?" remainder_next [116] $end
$var wire 1 @" remainder_next [117] $end
$var wire 1 A" remainder_next [118] $end
$var wire 1 B" remainder_next [119] $end
$var wire 1 C" remainder_next [120] $end
$var wire 1 D" remainder_next [121] $end
$var wire 1 E" remainder_next [122] $end
$var wire 1 F" remainder_next [123] $end
$var wire 1 G" remainder_next [124] $end
$var wire 1 H" remainder_next [125] $end
$var wire 1 I" remainder_next [126] $end
$var wire 1 J" remainder_next [127] $end
$var wire 1 K" remainder_next [128] $end
$var wire 1 L" remainder_next [129] $end
$var wire 1 M" remainder_next [130] $end
$var wire 1 N" remainder_next [131] $end
$var wire 1 O" remainder_next [132] $end
$var wire 1 P" remainder_next [133] $end
$var wire 1 Q" remainder_next [134] $end
$var wire 1 R" remainder_next [135] $end
$var wire 1 S" remainder_next [136] $end
$var wire 1 T" remainder_next [137] $end
$var wire 1 U" remainder_next [138] $end
$var wire 1 V" remainder_next [139] $end
$var wire 1 W" remainder_next [140] $end
$var wire 1 X" remainder_next [141] $end
$var wire 1 Y" remainder_next [142] $end
$var wire 1 Z" remainder_next [143] $end
$var wire 1 [" remainder_next [144] $end
$var wire 1 \" remainder_next [145] $end
$var wire 1 ]" remainder_next [146] $end
$var wire 1 ^" remainder_next [147] $end
$var wire 1 _" remainder_next [148] $end
$var wire 1 `" remainder_next [149] $end
$var wire 1 a" remainder_next [150] $end
$var wire 1 b" remainder_next [151] $end
$var wire 1 c" remainder_next [152] $end
$var wire 1 d" remainder_next [153] $end
$var wire 1 e" remainder_next [154] $end
$var wire 1 f" remainder_next [155] $end
$var wire 1 g" remainder_next [156] $end
$var wire 1 h" remainder_next [157] $end
$var wire 1 i" remainder_next [158] $end
$var wire 1 j" remainder_next [159] $end
$var wire 1 k" remainder_next [160] $end
$var wire 1 l" remainder_next [161] $end
$var wire 1 m" remainder_next [162] $end
$var wire 1 n" remainder_next [163] $end
$var wire 1 o" remainder_next [164] $end
$var wire 1 p" remainder_next [165] $end
$var wire 1 q" remainder_next [166] $end
$var wire 1 r" remainder_next [167] $end
$var wire 1 s" remainder_next [168] $end
$var wire 1 t" remainder_next [169] $end
$var wire 1 u" remainder_next [170] $end
$var wire 1 v" remainder_next [171] $end
$var wire 1 w" remainder_next [172] $end
$var wire 1 x" remainder_next [173] $end
$var wire 1 y" remainder_next [174] $end
$var wire 1 z" remainder_next [175] $end
$var wire 1 {" remainder_next [176] $end
$var wire 1 |" remainder_next [177] $end
$var wire 1 }" remainder_next [178] $end
$var wire 1 ~" remainder_next [179] $end
$var wire 1 !# remainder_next [180] $end
$var wire 1 "# remainder_next [181] $end
$var wire 1 ## remainder_next [182] $end
$var wire 1 $# remainder_next [183] $end
$var wire 1 %# remainder_next [184] $end
$var wire 1 &# remainder_next [185] $end
$var wire 1 '# remainder_next [186] $end
$var wire 1 (# remainder_next [187] $end
$var wire 1 )# remainder_next [188] $end
$var wire 1 *# remainder_next [189] $end
$var wire 1 +# remainder_next [190] $end
$var wire 1 ,# remainder_next [191] $end
$var wire 1 -# remainder_next [192] $end
$var wire 1 .# remainder_next [193] $end
$var wire 1 /# remainder_next [194] $end
$var wire 1 0# remainder_next [195] $end

$scope begin genblk1[13] $end
$var parameter 32 1# i $end
$upscope $end

$scope begin genblk1[12] $end
$var parameter 32 2# i $end
$upscope $end

$scope begin genblk1[11] $end
$var parameter 32 3# i $end
$upscope $end

$scope begin genblk1[10] $end
$var parameter 32 4# i $end
$upscope $end

$scope begin genblk1[9] $end
$var parameter 32 5# i $end
$upscope $end

$scope begin genblk1[8] $end
$var parameter 32 6# i $end
$upscope $end

$scope begin genblk1[7] $end
$var parameter 32 7# i $end
$upscope $end

$scope begin genblk1[6] $end
$var parameter 32 8# i $end
$upscope $end

$scope begin genblk1[5] $end
$var parameter 32 9# i $end
$upscope $end

$scope begin genblk1[4] $end
$var parameter 32 :# i $end
$upscope $end

$scope begin genblk1[3] $end
$var parameter 32 ;# i $end
$upscope $end

$scope begin genblk1[2] $end
$var parameter 32 <# i $end
$upscope $end

$scope begin genblk1[1] $end
$var parameter 32 =# i $end
$upscope $end

$scope begin genblk1[0] $end
$var parameter 32 ># i $end
$upscope $end
$upscope $end
$upscope $end
$enddefinitions $end
#0
$dumpvars
x%
b0 &
x'
0(
bx )
bx *
bx +
bx ,
bx (!
b11111010000 !
b1110 "
b1011 #
b1110 $
b1110 g
b1011 h
b1110 i
b1110 j
b0 >#
b1 =#
b10 <#
b11 ;#
b100 :#
b101 9#
b110 8#
b111 7#
b1000 6#
b1001 5#
b1010 4#
b1011 3#
b1100 2#
b1101 1#
b1110 f
x:
x9
x8
x7
x6
x5
x4
x3
x2
x1
x0
x/
x.
x-
xH
xG
xF
xE
xD
xC
xB
xA
x@
x?
x>
x=
x<
x;
xI
xX
xW
xV
xU
xT
xS
xR
xQ
xP
xO
xN
xM
xL
xK
xJ
xc
xb
xa
x`
x_
x^
x]
x\
x[
xZ
xY
xd
1e
x)!
x*!
x+!
x,!
x-!
x.!
x/!
x0!
x1!
x2!
x3!
x4!
x5!
x6!
x7!
x8!
x9!
x:!
x;!
x<!
x=!
x>!
x?!
x@!
xA!
xB!
xC!
xD!
xE!
xF!
xG!
xH!
xI!
xJ!
xK!
xL!
xM!
xN!
xO!
xP!
xQ!
xR!
xS!
xT!
xU!
xV!
xW!
xX!
xY!
xZ!
x[!
x\!
x]!
x^!
x_!
x`!
xa!
xb!
xc!
xd!
xe!
xf!
xg!
xh!
xi!
xj!
xk!
xl!
xm!
xn!
xo!
xp!
xq!
xr!
xs!
xt!
xu!
xv!
xw!
xx!
xy!
xz!
x{!
x|!
x}!
x~!
x!"
x""
x#"
x$"
x%"
x&"
x'"
x("
x)"
x*"
x+"
x,"
x-"
x."
x/"
x0"
x1"
x2"
x3"
x4"
x5"
x6"
x7"
x8"
x9"
x:"
x;"
x<"
x="
x>"
x?"
x@"
xA"
xB"
xC"
xD"
xE"
xF"
xG"
xH"
xI"
xJ"
xK"
xL"
xM"
xN"
xO"
xP"
xQ"
xR"
xS"
xT"
xU"
xV"
xW"
xX"
xY"
xZ"
x["
x\"
x]"
x^"
x_"
x`"
xa"
xb"
xc"
xd"
xe"
xf"
xg"
xh"
xi"
xj"
xk"
xl"
xm"
xn"
xo"
xp"
xq"
xr"
xs"
xt"
xu"
xv"
xw"
xx"
xy"
xz"
x{"
x|"
x}"
x~"
x!#
x"#
0##
0$#
0%#
0&#
0'#
0(#
0)#
0*#
0+#
0,#
0-#
0.#
0/#
00#
x'!
x&!
x%!
x$!
x#!
x"!
x!!
x~
x}
x|
x{
xz
xy
xx
xw
xv
xu
xt
xs
xr
xq
xp
xo
xn
xm
xl
0k
$end
#1
1(
b1 &
1k
bx0 (!
bx00 (!
bx000 (!
bx0000 (!
bx00000 (!
bx000000 (!
bx0000000 (!
bx00000000 (!
bx000000000 (!
bx0000000000 (!
bx00000000000 (!
bx000000000000 (!
bx0000000000000 (!
b0 (!
b11010100100100 )
b11001100011 *
b0 +
b0 ,
0%
1'
0I
0'!
0s"
0t"
0u"
0v"
0w"
0x"
0y"
0z"
0{"
0|"
0}"
0~"
0!#
0"#
0e"
0f"
0g"
0h"
0i"
0j"
0k"
0l"
0m"
0n"
0o"
0p"
0q"
0r"
0W"
0X"
0Y"
0Z"
0["
0\"
0]"
0^"
0_"
0`"
0a"
0b"
0c"
0d"
0I"
0J"
0K"
0L"
0M"
0N"
0O"
0P"
0Q"
0R"
0S"
0T"
0U"
0V"
0;"
0<"
0="
0>"
0?"
0@"
0A"
0B"
0C"
0D"
0E"
0F"
0G"
0H"
0-"
0."
0/"
00"
01"
02"
03"
04"
05"
06"
07"
08"
09"
0:"
0}!
0~!
0!"
0""
0#"
0$"
0%"
0&"
0'"
0("
0)"
0*"
0+"
0,"
0o!
0p!
0q!
0r!
0s!
0t!
0u!
0v!
0w!
0x!
0y!
0z!
0{!
0|!
0a!
0b!
0c!
0d!
0e!
0f!
0g!
0h!
0i!
0j!
0k!
0l!
0m!
0n!
0S!
0T!
0U!
0V!
0W!
0X!
0Y!
0Z!
0[!
0\!
0]!
0^!
0_!
0`!
0E!
0F!
0G!
0H!
0I!
0J!
0K!
0L!
0M!
0N!
0O!
0P!
0Q!
0R!
07!
08!
09!
0:!
0;!
0<!
0=!
0>!
0?!
0@!
0A!
0B!
0C!
0D!
0)!
0*!
0+!
0,!
0-!
0.!
0/!
00!
01!
02!
03!
04!
05!
06!
0&!
0%!
0$!
0#!
0"!
0!!
0~
0}
0|
0{
0z
0y
0x
0w
0v
0u
0t
0s
0r
0q
0p
0o
0n
0m
0l
0H
0G
0F
0E
0D
0C
0B
0A
0@
0?
0>
0=
0<
0;
0X
0W
0V
0U
0T
0S
0R
0Q
0P
0O
0N
0M
0L
0K
0J
0c
0b
0a
0`
0_
0^
0]
0\
0[
0Z
0Y
0:
09
08
07
06
05
04
03
02
01
00
0/
0.
0-
#2
0(
b10 &
0k
#3
1(
b11 &
1k
b1100110001101 )
b0 *
#4
0(
b100 &
0e
0k
#5
1(
b101 &
1k
b110100001101 )
b11111101101 *
b1100110001101 +
b11 ,
0'
1%
1&!
1%!
1y
1w
1v
1r
1q
1n
1m
1:
1'!
#6
0(
b110 &
0k
#7
1(
b111 &
1k
b10100111111001 )
b1010101010 *
b110100001101 +
b11111101101 ,
1s"
0%!
1$!
1#!
1!!
1~
1}
1|
1{
1z
0r
1o
0m
19
#8
0(
b1000 &
0k
#9
1(
b1001 &
1k
b11001001110111 )
b111110010 *
b10100111111001 +
b1010101010 ,
0s"
1e"
1f"
0&!
1%!
0$!
0~
0|
0z
0w
1u
1t
1s
1r
0o
1l
18
#10
0(
b1010 &
0k
#11
1(
b1011 &
1k
b1 (!
b11101011101000 )
b11111011110 *
b11001001110111 +
b111110010 ,
1s"
0f"
0#!
1"!
1~
1|
0{
1x
1w
0v
0r
0q
1p
0n
1m
17
#12
0(
b1100 &
0k
#13
1(
b1101 &
1k
b11 (!
b1100000101101 )
b11100001010 *
b11101011101000 +
b11111011110 ,
0s"
0e"
1f"
1W"
1X"
1$!
1#!
0!!
1{
1z
0y
0x
0w
1v
0u
1r
1n
16
#14
0(
b1110 &
0k
#15
1(
b1111 &
1k
b111 (!
b10000100100000 )
b11010010110 *
b1100000101101 +
b11100001010 ,
1e"
0f"
0X"
1Y"
1J"
1K"
1;"
0$!
0"!
0~
0}
1y
1w
0s
0r
0p
0l
15
#16
0(
b10000 &
0k
#17
1(
b10001 &
1k
b110 (!
b1110 (!
b11100000001101 )
b1011010101 *
b10000100100000 +
b11010010110 ,
1s"
0e"
1X"
0Y"
1I"
0K"
1L"
1="
1>"
1-"
1."
1$!
0#!
1"!
1}
0|
0y
0w
0v
1q
0n
0m
1l
14
#18
0(
b10010 &
0k
#19
1(
b10011 &
1k
b1111 (!
b1101 (!
b11101 (!
b11111010101110 )
b100100011 *
b11100000001101 +
b1011010101 ,
1e"
1f"
0X"
0I"
1K"
0L"
0;"
1<"
0>"
1?"
0-"
10"
11"
1&!
0%!
1~
0z
1y
1w
1v
0t
0q
1n
1m
13
#20
0(
b10100 &
0k
#21
1(
b10101 &
1k
b11111 (!
b11011 (!
b111011 (!
b101011001010 )
b1000101 *
b11111010101110 +
b100100011 ,
0s"
0W"
1X"
1Y"
0K"
1;"
0<"
1>"
0?"
0."
1/"
01"
12"
1!"
1#"
1$"
1%!
0$!
0"!
1!!
0~
0}
1|
0{
0y
1x
1t
1r
1p
1o
12
#22
0(
b10110 &
0k
#23
1(
b10111 &
1k
b111111 (!
b110111 (!
b1110111 (!
b11001101000001 )
b11111000100 *
b101011001010 +
b1000101 ,
0e"
0f"
1W"
0J"
1K"
1L"
0>"
1-"
1."
0/"
11"
02"
0!"
1""
0$"
1%"
1r!
1t!
1u!
0%!
1$!
0!!
1~
0|
0w
0t
1s
0o
0m
0l
11
#24
0(
b11000 &
0k
#25
1(
b11001 &
1k
b1110110 (!
b1111110 (!
b1101110 (!
b11101110 (!
b110111101011 )
b1010111 *
b11001101000001 +
b11111000100 ,
0X"
0Y"
1I"
1J"
0;"
0="
1>"
1?"
0-"
01"
1~!
1!"
0""
1$"
0%"
0r!
1s!
0u!
1v!
1e!
1g!
1h!
1S!
0&!
1}
1|
1{
1z
1y
0x
0v
0r
1q
0n
1m
1l
10
#26
0(
b11010 &
0k
#27
1(
b11011 &
1k
b11101111 (!
b11101101 (!
b11111101 (!
b11011101 (!
b111011101 (!
b1010111100 )
b11001110001 *
b110111101011 +
b1010111 ,
1e"
0W"
0K"
0L"
1<"
1="
0."
00"
11"
12"
0~!
0$"
1q!
1r!
0s!
1u!
0v!
0e!
1f!
0h!
1i!
1X!
1Z!
1[!
1E!
1F!
1&!
1%!
1"!
0}
0|
0{
0z
1x
1v
1t
1r
0p
1o
1n
0m
0l
1/
#28
0(
b11100 &
0k
#29
1(
b11101 &
1k
b111011100 (!
b111011110 (!
b111011010 (!
b111111010 (!
b110111010 (!
b1110111010 (!
b1010101001111 )
b11110111111 *
b1010111100 +
b11001110001 ,
1X"
0I"
0J"
1;"
0>"
0?"
1-"
1/"
10"
0!"
0#"
1$"
1%"
0q!
0u!
1d!
1e!
0f!
1h!
0i!
0S!
0X!
1Y!
0[!
1\!
1K!
1M!
1N!
0%!
0$!
1!!
1{
1z
0y
0x
1w
1u
0s
0q
1p
0o
0n
1.
#30
0(
b11110 &
0k
#31
1(
b11111 &
1k
b1110111000 (!
b1110111100 (!
b1110110100 (!
b1111110100 (!
b1101110100 (!
b11101110100 (!
b101100010101 )
b11101100010 *
b1010101001111 +
b11110111111 ,
1W"
1I"
1K"
0<"
0="
1."
01"
02"
1}!
1~!
1""
1#"
1o!
0r!
0t!
1u!
1v!
1a!
0d!
0h!
1S!
1W!
1X!
0Y!
1[!
0\!
0F!
1G!
1H!
1J!
0K!
0M!
0N!
18!
19!
1>!
1@!
1A!
1)!
1%!
1$!
1#!
0~
1}
1|
1y
1x
0u
0t
1s
0r
1q
0p
1o
1m
#32
0(
b100000 &
0k
#33
1(
b100001 &
1k
b11101110000 (!
b11101111000 (!
b11101101000 (!
b11111101000 (!
b11011101000 (!
b111011101000 (!
b1010110011111 )
b11111011011 *
b101100010101 +
b11101100010 ,
1I
1s"
0e"
0I"
1J"
0;"
1<"
1>"
0-"
0/"
00"
1!"
0$"
0%"
1p!
1q!
1s!
1t!
0a!
1b!
0e!
0g!
1h!
1i!
1T!
0W!
0[!
0E!
1F!
0G!
0H!
1K!
1M!
1N!
17!
09!
1:!
1;!
1=!
0>!
0@!
0A!
1+!
1,!
11!
13!
14!
0&!
0$!
0#!
0"!
1~
0}
0x
0v
1u
0s
1p
0o
1n
0m
0:
09
07
06
05
04
02
01
00
0.
1H
1X
1V
1U
1Q
1P
1M
1L
1c
1b
1d
#34
0(
b100010 &
0k
#35
1(
b100011 &
1k
b111011100000 (!
b111011110000 (!
b111011010000 (!
b111111010000 (!
b110111010000 (!
b1110111010000 (!
b1011010011111 )
b11110001001 *
b1010110011111 +
b11111011011 ,
0s"
1f"
0W"
0X"
0<"
1="
1-"
0."
1/"
11"
0~!
0""
0#"
1r!
0u!
0v!
1c!
1d!
1f!
1g!
0T!
1U!
0X!
0Z!
1[!
1\!
1G!
0J!
0N!
07!
08!
0:!
0;!
1<!
1>!
1@!
1*!
0,!
1-!
1.!
10!
01!
03!
04!
1&!
1#!
1"!
0!!
1}
1x
1v
1r
0p
1o
0n
1m
1:
08
03
0/
0H
1C
1@
1>
0Q
1N
0L
0b
1a
1`
1^
1]
1\
1[
1Z
1Y
#36
0(
b100100 &
0k
#37
1(
b100101 &
1k
b1110111000000 (!
b1110111100000 (!
b1110110100000 (!
b1111110100000 (!
b1101110100000 (!
b11101110100000 (!
b11111011010000 )
b11110010110 *
b1011010011111 +
b11110001001 ,
1s"
1e"
0f"
1W"
1Y"
1I"
0J"
0K"
1;"
0/"
10"
1~!
0!"
1""
1$"
0o!
0q!
0s!
0t!
1a!
1e!
0h!
0i!
0S!
1V!
1W!
1Y!
1Z!
1E!
0G!
1H!
0K!
0M!
1N!
1O!
19!
1:!
0<!
0=!
0*!
1,!
0.!
1/!
11!
0%!
0"!
0~
0q
1p
0:
17
16
15
14
13
12
11
10
1/
1.
1-
1H
1E
0C
1B
1?
1=
1<
1;
0V
1T
1S
1R
1Q
0N
1K
1J
0c
1b
0a
0]
0[
0Y
#38
0(
b100110 &
0k
#39
1(
b100111 &
1k
b11101110000000 (!
b11101111000000 (!
b11101101000000 (!
b11111101000000 (!
b11011101000000 (!
b111011000010 )
b10100111101 *
b11111011010000 +
b11110010110 ,
0e"
1f"
0W"
1X"
0Y"
0I"
1J"
1L"
0;"
1<"
0="
0>"
1."
0}!
0""
1#"
1q!
0r!
1s!
1u!
0b!
0d!
0f!
0g!
1T!
1X!
0[!
0\!
0E!
0F!
1I!
1J!
1L!
1M!
18!
0:!
1;!
0>!
0@!
1A!
1B!
0)!
0+!
0/!
00!
13!
0&!
1%!
1$!
0#!
1"!
0y
0x
0w
0v
1s
1n
1l
19
1G
0E
1C
0B
0@
1W
1V
0U
0Q
0P
1O
0M
1L
0`
1_
1]
1[
0Z
#40
0(
b101000 &
0k
#41
1(
b101001 &
1k
b11011101000001 (!
b11011100000001 (!
b11011110000001 (!
b11011010000001 (!
b11111010000001 (!
b10111010000001 (!
b1111110 )
b11100011111 *
b111011000010 +
b10100111101 ,
0s"
1W"
0X"
1Y"
1I"
0J"
1K"
0L"
1;"
0<"
1="
1?"
0."
1/"
00"
01"
1}!
1!"
1o!
0p!
0s!
1t!
0a!
1b!
0c!
0e!
1f!
0U!
0W!
0Y!
0Z!
1G!
1K!
0N!
0O!
08!
0;!
1=!
1@!
0A!
0B!
1)!
01!
12!
03!
14!
1&!
0%!
1#!
1!!
0}
0{
1x
0u
0m
0l
09
07
06
05
04
03
02
01
00
0/
0.
0-
0H
0G
1E
1B
1A
0>
0X
0W
0V
1U
0T
1Q
1M
1a
1`
0^
1Z
1Y
#42
0(
b101010 &
0k
#43
1(
b101011 &
1k
b10111010000000 (!
b10111010000010 (!
b10111000000010 (!
b10111100000010 (!
b10110100000010 (!
b11110100000010 (!
b1110100000010 (!
b10111110000101 )
b1101001001 *
b1111110 +
b11100011111 ,
0f"
0I"
1J"
0K"
1L"
1<"
0="
1>"
0?"
0-"
1."
0/"
10"
12"
0}!
0!"
1""
0#"
0$"
1p!
1r!
1a!
1d!
0f!
1g!
1h!
1S!
0T!
1U!
0V!
0X!
1Y!
0H!
0J!
0L!
0M!
17!
09!
1:!
1;!
1<!
1>!
1?!
0)!
0-!
10!
02!
13!
04!
1%!
0!!
1{
1w
1v
1u
1t
0r
0p
0o
0n
1:
19
1H
1G
1F
0C
0B
0A
1@
0=
0<
0;
1X
1V
0R
0Q
0O
0K
0J
0a
0_
0]
0\
#44
0(
b101100 &
0k
